{
  "realm": "weofferservice",
  "enabled": true,
  "users": [
    {
      "username": "admin1",
      "enabled": true,
      "credentials": [
        {
          "type": "password",
          "value": "p@ssw0rd"
        }
      ],
      "realmRoles": [
        "ROLE_ADMIN",
        "ROLE_USER"
      ]
    },
    {
      "username": "user1",
      "enabled": true,
      "credentials": [
        {
          "type": "password",
          "value": "qwerty"
        }
      ],
      "realmRoles": [
        "ROLE_USER"
      ]
    }
  ],
  "clients": [
    {
      "clientId": "demo-service",
      "enabled": true,
      "publicClient": true,
      "redirectUris": [
        "http://localhost:8080/*"
      ],
      "implicitFlowEnabled": true,
      "directAccessGrantsEnabled": true
    }
  ]
}
